…
Looks like a left-skewed distribution, but the scale is way too big, so
there may be outliers. Going to investigate max values of diameter using
arrange(desc())to ensure there are no apparent data entry errors.

``` r
arrange(trees_tbl, desc(diameter))
```

    ## # A tibble: 146,611 × 5
    ##    genus_name     diameter neighbourhood_name  common_name          date_planted
    ##    <chr>             <dbl> <chr>               <chr>                <date>      
    ##  1 STYRAX              435 HASTINGS-SUNRISE    JAPANESE SNOWBELL    2003-03-25  
    ##  2 ACER                317 KITSILANO           MAPLE SPECIES        1993-11-01  
    ##  3 QUERCUS             305 DUNBAR-SOUTHLANDS   WILLOW OAK           2000-04-20  
    ##  4 ACER                182 MARPOLE             SILVER MAPLE         NA          
    ##  5 ACER                161 MARPOLE             NORWAY MAPLE         NA          
    ##  6 ACER                156 KERRISDALE          SCHWEDLER NORWAY MA… NA          
    ##  7 ACER                151 DOWNTOWN            RED MAPLE            NA          
    ##  8 ULMUS               144 VICTORIA-FRASERVIEW BRANDON ELM          2000-02-03  
    ##  9 PRUNUS              141 SOUTH CAMBIE        KWANZAN FLOWERING C… NA          
    ## 10 CERCIDIPHYLLUM      131 VICTORIA-FRASERVIEW KATSURA TREE         NA          
    ## # ℹ 146,601 more rows
…
##### **Data Exploration 3**

Exercise 5: We will use filter() to remove the outliers (greater than
100 inches):

``` r
trees_tbl <- filter(trees_tbl, diameter < 100 )

#And now our largest diameters are 99:
arrange(trees_tbl, desc(diameter))
```

    ## # A tibble: 146,601 × 5
    ##    genus_name    diameter neighbourhood_name       common_name      date_planted
    ##    <chr>            <dbl> <chr>                    <chr>            <date>      
    ##  1 CORNUS              99 SHAUGHNESSY              PACIFIC DOGWOOD  NA          
    ##  2 CHAMAECYPARIS       99 SHAUGHNESSY              LAWSON CYPRESS/… NA          
    ##  3 SORBUS              99 KENSINGTON-CEDAR COTTAGE EUROPEAN MOUNTA… NA          
    ##  4 CASTANEA            99 SHAUGHNESSY              AMERICAN CHESTN… NA          
    ##  5 CORNUS              99 SHAUGHNESSY              PACIFIC DOGWOOD  NA          
    ##  6 CORNUS              99 SHAUGHNESSY              PACIFIC DOGWOOD  NA          
    ##  7 CORNUS              99 SHAUGHNESSY              PACIFIC DOGWOOD  NA          
    ##  8 CORNUS              99 SHAUGHNESSY              PACIFIC DOGWOOD  NA          
    ##  9 TILIA               99 RENFREW-COLLINGWOOD      DEGROOT LINDEN   1996-04-15  
    ## 10 QUERCUS             99 FAIRVIEW                 PIN OAK          NA          
    ## # ℹ 146,591 more rows
…
