…
### 2.1 (2 points)

Based on the definition above, can you identify if your data is tidy or
untidy? Go through all your columns, or if you have \>8 variables, just
pick 8, and explain whether the data is untidy or tidy.

<!--------------------------- Start your work below --------------------------->

``` r
top_n(trees_tbl, 5)
```

    ## # A tibble: 17,408 × 7
    ##    genus_name diameter neighbourhood_name  common_name date_planted height_class
    ##    <chr>         <dbl> <chr>               <chr>       <date>              <dbl>
    ##  1 CATALPA        30   KITSILANO           COMMON CAT… NA                      6
    ##  2 POPULUS        37   FAIRVIEW            BLACK COTT… NA                      3
    ##  3 PRUNUS         37   MARPOLE             KWANZAN FL… NA                      3
    ##  4 CORNUS         42   HASTINGS-SUNRISE    PACIFIC DO… NA                      2
    ##  5 ROBINIA        28   DUNBAR-SOUTHLANDS   BLACK LOCU… NA                      6
    ##  6 ACER           30.8 SHAUGHNESSY         NORWAY MAP… NA                      4
    ##  7 AESCULUS       39   GRANDVIEW-WOODLAND  COMMON HOR… NA                      6
    ##  8 THUJA          30   DUNBAR-SOUTHLANDS   WESTERN RE… NA                      6
    ##  9 TILIA          26   SHAUGHNESSY         BASSWOOD    NA                      5
    ## 10 THUJA          25   RENFREW-COLLINGWOOD WESTERN RE… NA                      5
    ## # ℹ 17,398 more rows
    ## # ℹ 1 more variable: diameter_class <fct>
…
``` r
trees_tbl %>% 
  group_by(genus_name, common_name, neighbourhood_name, height_class, diameter_class) %>% 
  summarize(count = n()) %>% 
  pivot_wider(names_from = neighbourhood_name, values_from = count)
```

    ## # A tibble: 4,732 × 26
    ## # Groups:   genus_name, common_name, height_class [2,393]
    ##    genus_name common_name height_class diameter_class KITSILANO
    ##    <chr>      <chr>              <dbl> <fct>              <int>
    ##  1 ABIES      ALPINE FIR             3 sapling                1
    ##  2 ABIES      BALSAM FIR             4 small                 NA
    ##  3 ABIES      BALSAM FIR             6 medium                NA
    ##  4 ABIES      BALSAM FIR             2 sapling               NA
    ##  5 ABIES      BALSAM FIR             6 large                 NA
    ##  6 ABIES      BALSAM FIR             1 sapling                1
    ##  7 ABIES      BALSAM FIR             4 medium                NA
    ##  8 ABIES      GRAND FIR              2 sapling               NA
    ##  9 ABIES      GRAND FIR              4 large                 NA
    ## 10 ABIES      GRAND FIR              5 medium                NA
    ## # ℹ 4,722 more rows
    ## # ℹ 21 more variables: `DUNBAR-SOUTHLANDS` <int>, `GRANDVIEW-WOODLAND` <int>,
    ## #   `HASTINGS-SUNRISE` <int>, KERRISDALE <int>, `RENFREW-COLLINGWOOD` <int>,
    ## #   STRATHCONA <int>, `WEST POINT GREY` <int>, `ARBUTUS-RIDGE` <int>,
    ## #   FAIRVIEW <int>, `KENSINGTON-CEDAR COTTAGE` <int>, MARPOLE <int>,
    ## #   `MOUNT PLEASANT` <int>, OAKRIDGE <int>, `RILEY PARK` <int>,
    ## #   SHAUGHNESSY <int>, `SOUTH CAMBIE` <int>, SUNSET <int>, DOWNTOWN <int>, …
…
#adding all "other" species together and adding "proportion" column
trees_analysis <- trees_analysis %>% 
  group_by(neighbourhood_name, common_name)%>% 
  summarize(species_count = sum(species_count), dbh = mean(dbh), height = mean(height)) %>%
  mutate(proportion = species_count/ sum(species_count)) %>%
  arrange(neighbourhood_name, species_count)

trees_analysis
```

    ## # A tibble: 2,473 × 6
    ## # Groups:   neighbourhood_name [22]
    ##    neighbourhood_name common_name          species_count   dbh height proportion
    ##    <chr>              <chr>                        <int> <dbl>  <dbl>      <dbl>
    ##  1 ARBUTUS-RIDGE      BAILEY SELECT CHOKE…            10  3      1       0.00193
    ##  2 ARBUTUS-RIDGE      BIGLEAF MAPLE                   10 31.0    7       0.00193
    ##  3 ARBUTUS-RIDGE      DEODAR CEDAR                    10 22.5    5       0.00193
    ##  4 ARBUTUS-RIDGE      WILDFIRE BLACK GUM              10  3      1       0.00193
    ##  5 ARBUTUS-RIDGE      HALKA HONEYLOCUST               11  4.82   1.73    0.00213
    ##  6 ARBUTUS-RIDGE      MAPLE SPECIES                   11 13.7    3.27    0.00213
    ##  7 ARBUTUS-RIDGE      RED OAK                         11 31.3    5.55    0.00213
    ##  8 ARBUTUS-RIDGE      SERVICEBERRY                    11  4.64   2.64    0.00213
    ##  9 ARBUTUS-RIDGE      FERNLEAF BEECH                  12  3      1       0.00232
    ## 10 ARBUTUS-RIDGE      GIANT DOGWOOD                   12  3.17   1.25    0.00232
    ## # ℹ 2,463 more rows
…
